<svg width="78" height="79" viewBox="0 0 78 79" fill="none" xmlns="http://www.w3.org/2000/svg">
<path fill-rule="evenodd" clip-rule="evenodd" d="M75.9998 39.002C75.9998 59.438 59.4358 76.002 38.9998 76.002C18.5638 76.002 1.9998 59.438 1.9998 39.002C1.9998 18.566 18.5638 2.00195 38.9998 2.00195C59.4358 2.00195 75.9998 18.566 75.9998 39.002Z" stroke="#DFDAC7" stroke-width="4" stroke-linecap="round" stroke-linejoin="round"/>
<path opacity="0.4" d="M52.7263 50.7717L37.6463 41.7757V22.3877" stroke="#DFDAC7" stroke-width="4" stroke-linecap="round" stroke-linejoin="round"/>
</svg>
